…
The structure of the complete simulation can then be setup in dataframe, where each row represents the parameters to be used for each game. I’ll run 2500 simulations for 2, 3, and 4 players. I get the output column (recall it’s a list of two dataframes), and then separate these out into their own columns. That’s inefficient, but convenient in this case. I’m also calculating the number of turns for each game and making a new column for that as well.

game_df <- data_frame(game = rep(1:2500, 3), players = rep(2:4, each = 2500)) %>% 
  rowwise() %>% 
  mutate(output = map(players, sim_game, board = game_board),
         sq = list(sq = output[[1]]),
         path = list(path = output[[2]]),
         n = nrow(sq)/players - 1)
game_df

## Source: local data frame [7,500 x 6]
## Groups: <by row>
## 
## # A tibble: 7,500 x 6
##     game players output           sq                path                  n
##    <int>   <int> <list>           <list>            <list>            <dbl>
##  1     1       2 <named list [2]> <tibble [28 x 2]> <tibble [40 x 2]>    13
##  2     2       2 <named list [2]> <tibble [46 x 2]> <tibble [64 x 2]>    22
##  3     3       2 <named list [2]> <tibble [36 x 2]> <tibble [46 x 2]>    17
##  4     4       2 <named list [2]> <tibble [22 x 2]> <tibble [30 x 2]>    10
##  5     5       2 <named list [2]> <tibble [12 x 2]> <tibble [18 x 2]>     5
##  6     6       2 <named list [2]> <tibble [34 x 2]> <tibble [40 x 2]>    16
##  7     7       2 <named list [2]> <tibble [26 x 2]> <tibble [34 x 2]>    12
##  8     8       2 <named list [2]> <tibble [44 x 2]> <tibble [54 x 2]>    21
##  9     9       2 <named list [2]> <tibble [16 x 2]> <tibble [20 x 2]>     7
## 10    10       2 <named list [2]> <tibble [32 x 2]> <tibble [40 x 2]>    15
## # ... with 7,490 more rows
…
