…
print(lb)


#To view the entire leaderboard, specify the `n` argument of 
#the `print.H2OFrame()` function as the total number of rows:

print(lb, n = nrow(lb))

```


    # A tibble: 21 x 6
       model_id                          mean_residual_devi…  rmse   mse   mae rmsle
       <chr>                                           <dbl> <dbl> <dbl> <dbl> <dbl>
     1 StackedEnsemble_AllModels_AutoML…               4665.  68.3 4665.  33.1 0.392
     2 StackedEnsemble_BestOfFamily_Aut…               4716.  68.7 4716.  33.3 0.393
     3 XRT_1_AutoML_20191218_024428                    4775.  69.1 4775.  33.6 0.399
     4 DRF_1_AutoML_20191218_024428                    4849.  69.6 4849.  33.8 0.400
     5 XGBoost_2_AutoML_20191218_024428                4880.  69.9 4880.  34.0 0.402
     6 XGBoost_1_AutoML_20191218_024428                4964.  70.5 4964.  34.7 0.409
     7 GBM_4_AutoML_20191218_024428                    5270.  72.6 5270.  36.3 0.424
     8 GBM_3_AutoML_20191218_024428                    5502.  74.2 5502.  37.5 0.438
     9 GBM_2_AutoML_20191218_024428                    5543.  74.5 5543.  37.9 0.442
    10 GBM_5_AutoML_20191218_024428                    5626.  75.0 5626.  39.0 0.452
    # … with 11 more rows
…
