…
We  can see the performance of the varoius models trained by AutoML as below.


```r
%%R

model_h2o_automl@leaderboard%>%as_tibble()
```


    # A tibble: 67 x 6
       model_id                          auc logloss mean_per_class_er…  rmse    mse
       <chr>                           <dbl>   <dbl>              <dbl> <dbl>  <dbl>
     1 XGBoost_grid_1_AutoML_20190630… 0.954   0.292             0.0954 0.294 0.0864
     2 GBM_4_AutoML_20190630_154827    0.953   0.306             0.113  0.303 0.0916
     3 XGBoost_3_AutoML_20190630_1548… 0.953   0.326             0.0954 0.308 0.0951
     4 XGBoost_grid_1_AutoML_20190630… 0.950   0.311             0.110  0.304 0.0926
     5 XGBoost_grid_1_AutoML_20190630… 0.949   0.303             0.115  0.299 0.0895
     6 XGBoost_grid_1_AutoML_20190630… 0.948   0.312             0.110  0.306 0.0936
     7 GBM_grid_1_AutoML_20190630_154… 0.948   0.289             0.0832 0.287 0.0825
     8 GBM_grid_1_AutoML_20190630_154… 0.948   0.598             0.105  0.363 0.132 
     9 GBM_grid_1_AutoML_20190630_154… 0.947   0.334             0.0954 0.315 0.0990
    10 GBM_grid_1_AutoML_20190630_154… 0.947   0.313             0.113  0.311 0.0969
    # … with 57 more rows
…
